.Xil/Vivado-26162-eecs-digital-49/hw_ila_data_1/zip_work/waveform.vcd
$date
        2019-Nov-26 19:03:32
$end
$version
        Vivado v2019.1.2 (64-bit)
$end
$timescale
        1ps
$end
$scope module dut $end
$var reg 1 " ADC_data_valid $end
$var reg 24 # IF_out [23:0] $end
$var reg 34 ; filt_sec_3_out [33:0] $end
$var reg 1 ] _TRIGGER $end
$var reg 1 ^ _WINDOW $end
$var reg 1 _ _GAP $end
$upscope $end
$enddefinitions $end
#0
$dumpvars
0"
b110111000001000001111 #
b1011100001000000001010111 ;
0]
1^
0_
$end
#1
b110110001000010101101 #
#3
b110101001110011010100 #
b1001010110001101011011001 ;
#6
b110100010011010000100 #
#8
1"
b1100000011001010110100 #
#9
0"
b1011110101100010100100 #
#11
b1011100111111010010100 #
#13
b110011010001110000100111 ;
#14
b1011011001111111111001 #
#17
b1011001100000101011110 #
#18
1"
b10001001010011100110000 #
#19
0"
#20
b10000110101000110111000 #
#22
b10000011111110001000000 #
#23
b10111100011111100001000 ;
#25
b10000001001111111010000 #
#28
1"
b10101000001110101010000 #
#29
0"
#30
b10100100100111000001000 #
#33
b10100000111111011000000 #
b1111111111111001111010000101110010 ;
#36
b10011101010111101111000 #
#38
1"
b10111001111100011010010 #
#39
0"
#41
b10110101100100001000110 #
#43
b1111111111011100110000010010011011 ;
#44
b10110001000110010000100 #
#46
b10101100101101111111000 #
#48
1"
b10111111101011001110100 #
#49
0"
b10111010101101111110001 #
#52
b10110101110110111011111 #
#53
b1111111111000010011111111110011001 ;
#55
b10110000111111111001101 #
#57
b10101100001000110111011 #
#58
1"
b10110010010110101001100 #
#59
0"
#60
b10101101010100011000100 #
#63
b10101000010010000111100 #
b1111111110101101010011010101111011 ;
#65
b10100011010110010011000 #
#68
1"
b10010111110010100000010 #
#69
0"
#71
b10010011000011111001000 #
#73
b10001110010101010001110 #
b1111111110011110111001111101101110 ;
#76
b10001001101100110101110 #
#78
1"
b1111011010111111000011 #
#79
0"
b1110111001110010010011 #
#81
b1110011000100101100011 #
#83
b1111111110011000011111100111101010 ;
#84
b1101111000000101000100 #
#87
b1101011000010000110110 #
#88
1"
b1011000000110101101000 #
#89
0"
#90
b1010100110101001100000 #
#92
b1010001100011101011000 #
#93
b1111111110011010100110000011111000 ;
#95
b1001110010110101101100 #
#98
1"
b110111010000011010001 #
#99
0"
#100
b110100111101001100101 #
#103
b110010101101010101010 #
b1111111110100101000010001111000011 ;
#106
b110000011101011101111 #
#108
1"
b11101101001111010010 #
#109
0"
#111
b11100010001111111000 #
#113
b1111111110110110111101001100100100 ;
#114
b11010111100001101000 #
#117
b11001100110011011000 #
#118
1"
b1101011100111111100 #
#119
0"
b1100110001000010101 #
#122
b1100000110001101111 #
#123
b1111111111001110111000100111101100 ;
#125
b1011011100100001010 #
#127
b1010110010110100101 #
#128
1"
b11101110010000011 #
#129
0"
#130
b11100000101001110 #
#133
b11010011000011001 #
b1111111111101010110110100011111111 ;
#135
b11000101110101011 #
#138
1"
b100001011110000 #
#139
0"
#141
b11111001110000 #
#143
b11101000111000 #
b1000100011110100010010 ;
#146
b11011000000000 #
#148
1"
b1010100000000000 #
#149
0"
b1001101101010000 #
#152
b1000111100010000 #
#153
b100101100100000001011111 ;
#154
b1000001101000000 #
#157
b111011111100000 #
#158
1"
b11001110100100100 #
#159
0"
#160
b10111100011110100 #
#162
b10101010011000100 #
#163
b111111011110100001100110 ;
#165
b10011001110011000 #
#168
1"
b100101100000001000 #
#169
0"
#170
b100001011000011000 #
#173
b11101011101110100 #
b1010100001010111011001100 ;
#176
b11001110000011100 #
#178
1"
b100101011101111100 #
#179
0"
#181
b100000010000111001 #
#183
b1100001111100010011011001 ;
#184
b11011000011110110 #
#187
b10110100011001101 #
#188
1"
b100000010010110011 #
#189
0"
b11010010101001111 #
#192
b10100110111011110 #
#193
b1100111101010001011001011 ;
#195
b10000011001010011 #
#197
b1011111011001000 #
#198
1"
b1111001100011000 #
#199
0"
#200
b1010110000110001 #
#203
b110111101101011 #
b1100100110110011100110110 ;
#205
b100011011100111 #
#208
1"
b10001101111100 #
#209
0"
#211
b101111010100 #
#213
b0 #
b1011001101111111010011100 ;
#218
1"
#219
0"
b1100110000010 #
#222
b11111111000101 #
#223
b1000111010000111111111010 ;
#224
b111001011001001 #
#227
b1011001010001110 #
#228
1"
b1011001101010010 #
#229
0"
#230
b10000110011111011 #
#232
b10110011010100100 #
#233
b101110111010111111100001 ;
#235
b11101100111101011 #
#238
1"
b100010111000100000 #
#239
0"
#240
b101011110010100000 #
#243
b110100101100100000 #
b10010101110000001110001 ;
#246
b111111000101100000 #
#248
1"
b110110110010010000 #
#249
0"
b1000000011101000000 #
#251
b1001010110001000000 #
#253
b1111111111110100111110100010111101 ;
#254
b1010110010111100000 #
#257
b1100001111110000000 #
#258
1"
b1001101010000110000 #
#259
0"
b1010111011011011000 #
#262
b1100010000110100010 #
#263
b1111111111011000001001000101110101 ;
#265
b1101101010010001110 #
#267
b1111000111110011100 #
#268
1"
b1010100111001000110 #
#269
0"
#270
b1011101011100111110 #
#273
b1100110010111101011 #
b1111111110111110100101011011101100 ;
#275
b1101111101001001101 #
#278
1"
b1000111111011100000 #
#279
0"
#281
b1001101110101100000 #
#283
b1111111110101010011010000101100000 ;
#284
b1010011111101000000 #
#286
b1011010011111100000 #
#288
1"
b101010100001011110 #
#289
0"
b101101100110001000 #
#292
b110000110111011110 #
#293
b1111111110011101010001001111111000 ;
#294
b110100001000110100 #
#297
b110111100000100000 #
#298
1"
b1110111001110000 #
#299
0"
#300
b1111110101010111 #
#302
b10000110010101011 #
#303
b1111111110011000010000000100001100 ;
#305
b10001110001101100 #
#308
1"
b110011000001010 #
#309
0"
#310
b110101110001000 #
#313
b111000101010000 #
b1111111110011011110000111100101010 ;
#316
b111011100011000 #
#318
1"
b101001001111011000 #
#319
0"
b101011010010101101 #
#321
b101101010110000010 #
#323
b1111111110100111100001011001010010 ;
#324
b101111011100100100 #
#327
b110001100110010011 #
#328
1"
b10000011001000100010 #
#329
0"
b10001000111101001010 #
#332
b10001110110001110010 #
#333
b1111111110111010100011100001010100 ;
#335
b10010100101110111000 #
#337
b10011010101011111110 #
#338
1"
b100101111111100111001 #
#339
0"
#340
b100111011111010010111 #
#343
b101000111110111110101 #
b1111111111010011010011001001000010 ;
#345
b101010100000101111100 #
#348
1"
b1000101000110010001101 #
#349
0"
#351
b1000111100010111011101 #
#353
b1111111111101111101110000001000111 ;
#354
b1001001111111100101101 #
#356
b1001100011100001111101 #
#358
1"
b1101000011001000101110 #
#359
0"
b1101011110011011111000 #
#362
b1101111001101111000010 #
#363
b1101011110100100000111 ;
#364
b1110010101100101110110 #
#367
b1110110000111001000000 #
#368
1"
b10010000110111101100000 #
#369
0"
#370
b10010101001001000001110 #
#372
b10011001011010010111100 #
#373
b101010001000001001110110 ;
#375
b10011101101011101101010 #
#378
1"
b10110101110011001110000 #
#379
0"
#381
b10111010101100001100010 #
#383
b10111111011111000001110 #
b1000011010011111111110100 ;
#386
b11000100010001110111010 #
#388
1"
b11001110011101100010111 #
#389
0"
b11001110100100000000000 #
#391
b11010011100110110000010 #
#393
b1010110111101100010110001 ;
#394
b11011000101001100000100 #
#397
b11011101110010101101111 #
#398
1"
b11011000001001111100011 #
#399
0"
b11011101000100011111101 #
#402
b11100001111111000010111 #
#403
b1100011011101011000010111 ;
#405
b11100110111001100110001 #
#407
b11101011110100001001011 #
#408
1"
b11010101000111101000001 #
#409
0"
#410
b11011001011110001110000 #
#413
b11011101111010011111110 #
b1100111110001101111011001 ;
#416
b11100010010001000101101 #
#418
1"
b10111111111101010111100 #
#419
0"
#421
b11000011100000100001100 #
#423
b1100011100011111001111001 ;
#424
b11000111000011101011100 #
#426
b11001010100110110101100 #
#428
1"
b10011000100110100110100 #
#429
0"
b10011011001110001000011 #
#432
b10011101110101101010010 #
#433
b1010111001010000100100101 ;
#434
b10100000011001101000000 #
#437
b10100010111101100101110 #
#438
1"
b1101010111110011000100 #
#439
0"
#440
b1101100100111101011010 #
#442
b1101110010000111110000 #
#443
b1000011100101100010000000 ;
#445
b1101111110111111011000 #
#448
1"
b111110100111010100000 #
#449
0"
#451
b111111011110110100111 #
#453
b1000000010101000011001 #
b101010011101010010110011 ;
#456
b1000001001001111110110 #
#458
1"
b10111100011110000010 #
#459
0"
b10111110110111001001 #
#461
b11000001001100100001 #
#463
b1101110101100111011110 ;
#464
b11000011100001111001 #
#467
b11000101101111110011 #
#468
1"
b101100101011011110 #
#469
0"
b101101001011100010 #
#472
b101101101010110000 #
#473
b1111111111110000000101001000010101 ;
#475
b101110001001001000 #
#477
b101110100110101010 #
#478
1"
b111110001000111000 #
#479
0"
#480
b111110101111001000 #
#483
b111111010100010000 #
b1111111111010011101000011100101101 ;
#486
b111111111001011000 #
#488
1"
b100010000111110110010 #
#489
0"
#491
b100010011010010100001 #
#493
b1111111110111010110101010010101011 ;
#494
b100010101011100101110 #
#496
b100010111100010001010 #
#498
1"
b1010110010001000001010 #
#499
0"
b1010110111010001100110 #
#502
b1010111100000011100000 #
#503
b1111111110100111101110001011001010 ;
#504
b1011000000101001101001 #
#507
b1011000101000100000001 #
#508
1"
b10011001011111010011000 #
#509
0"
#510
b10011010011001111000000 #
#513
b10011011010001111010000 #
b1111111110011011110111101011000101 ;
#515
b10011100000111011001000 #
#518
1"
b11101000010110111101101 #
#519
0"
#521
b11101001011010110110011 #
#523
b11101010011110101111001 #
b1111111110011000010000001010000110 ;
#526
b11101011011011000101001 #
#528
1"
b100110001110001010000100 #
#529
0"
b100110010111010101111000 #
#531
b100110011111111010100000 #
#533
b1111111110011101001010101010011101 ;
#534
b100110100111010000110000 #
#537
b100110101110100111000000 #
#538
1"
b101101111101001000000000 #
#539
0"
b101110000100011001000000 #
#542
b101110001010111011100000 #
#543
b1111111110101010001101010100110011 ;
#545
b101110010000000001000000 #
#548
1"
b110010001101001100001001 #
#549
0"
#550
b110010010001001000000110 #
#553
b110010010100010001101010 #
b1111111110111110010011100000010010 ;
#556
b110010010110101000110101 #
#558
1"
b110011011011001100100100 #
#559
0"
#563
b1111111111010111110011011011111001 ;
#564
b110011011010011001001000 #
#566
b110011011000110010010000 #
#568
1"
b110000101111111100110100 #
#569
0"
b110000101100111001101000 #
#572
b110000101001110110011100 #
#573
b1111111111110100100110111010111111 ;
#574
b110000100101010001101010 #
#577
b110000011111111100000101 #
#578
1"
b101010001011011011000100 #
#579
0"
#580
b101010000101011101001000 #
#583
b101001111111011111001100 #
b10010010110010111100011 ;
#585
b101001111000001100011000 #
#588
1"
b100001011101111010111110 #
#589
0"
#591
b100001010111000000110001 #
#593
b100001001111000010100010 #
b101110100101001111111011 ;
#596
b100001000111000100010011 #
#598
1"
b10111110101010011001101 #
#599
0"
b10111101110110010111110 #
#601
b10111100111111010010000 #
#603
b1000110111110111110100101 ;
#604
b10111100000101001000011 #
#607
b10111011000111111010111 #
#608
1"
b1110010011001100101110 #
#609
0"
b1110001110000011011010 #
#612
b1110001000111010000110 #
#613
b1011001100011001000000111 ;
#615
b1110000011010010110110 #
#618
1"
b110101101000111011100 #
#619
0"
#620
b110101010001100100100 #
#623
b110100111001010100000 #
b1100100101111111111000101 ;
#626
b110100100000001010000 #
#628
1"
b10010000000011100001 #
#629
0"
#631
b10001110111000111111 #
#633
b1100111101010100110010011 ;
#634
b10001101101110011101 #
#636
b10001100011110111101 #
#638
1"
b11110111011001001 #
#639
0"
b11110101001000110 #
#642
b11110010110100000 #
#643
b1100010000011100111001010 ;
#645
b11110000011010111 #
#647
b11101110000001110 #
#648
1"
b1101110100000110100 #
#649
0"
#650
b1101101010101101010 #
#653
b1101100001010100000 #
b1010100011000100010100100 ;
#655
b1101010111101010100 #
#658
1"
b110000111111110100110 #
#659
0"
#661
b110000011010001010110 #
#663
b101111110100100000110 #
b111111110001010101101000 ;
#666
b101111001101111010100 #
#668
1"
b1011111101101010101010 #
#669
0"
b1011110011101001100000 #
#671
b1011101001011001000101 #
#673
b100101111010011111000010 ;
#674
b1011011111001000101010 #
#677
b1011010100101000111110 #
#678
1"
b10010001000000001001000 #
#679
0"
#680
b10001110111001101111000 #
#682
b10001100110000010001100 #
#683
b1000111100000100001100 ;
#685
b10001010100011110000100 #
#688
1"
b10111101101110010000000 #
#689
0"
#690
b10111010101010110000000 #
#693
b10110111100011000000000 #
b1111111111101011001110100101000110 ;
#696
b10110100010111000000000 #
#698
1"
b11011101001110000111100 #
#699
0"
#701
b11011001001111011001100 #
#703
b1111111111001111001110011001101011 ;
#704
b11010101001011010111111 #
#706
b11010001000111010110010 #
#708
1"
b11101111111110100101100 #
#709
0"
b11101011010100001011110 #
#712
b11100110101001110010000 #
#713
b1111111110110111001110111010101110 ;
#715
b11100001111001010010100 #
#717
b11011101001000110011000 #
#718
1"
b11101000010001011011100 #
#719
0"
#720
b11100011010001100110110 #
#723
b11011110010001110010000 #
b1111111110100101001110011010001100 ;
#725
b11011001010001111101010 #
#728
1"
b11001111111110001101110 #
#729
0"
#731
b11001011000100101111010 #
#733
b11000110000100111111100 #
b1111111110011010101011101010011111 ;
#736
b11000001001011100001000 #
#738
1"
b10110010111010101100100 #
#739
0"
b10101110010010100011101 #
#741
b10101001110000001110011 #
#743
b1111111110011000011110001011011100 ;
#744
b10100101001101111001001 #
#747
b10100000101011100011111 #
#748
1"
b10001000000010010000111 #
#749
0"
#750
b10000100001100011101101 #
#752
b10000000010110101010011 #
#753
b1111111110011110110001100110001101 ;
#755
b1111100100101110001110 #
#758
1"
b1011100011101001011110 #
#759
0"
#760
b1011001100100110111000 #
#763
b1010110101100100010010 #
b1111111110101101000100101111111000 ;
#766
b1010011110111111110010 #
#768
1"
b110110011111111001101 #
#769
0"
#771
b110100100110011111101 #
#773
b1111111111000010001100011000000001 ;
#774
b110010101111100111100 #
#777
b110000111011010001010 #
#778
1"
b11100000100100011010 #
#779
0"
b11011000001110011000 #
#782
b11001111111000010110 #
#783
b1111111111011100011001010100110000 ;
#785
b11000111101101111011 #
#787
b10111111101111000111 #
#788
1"
b1001100001000000111 #
#789
0"
#790
b1001000111101010011 #
#793
b1000101110111000110 #
b1111111111111001100001101011110010 ;
#795
b1000010110000111001 #
#798
1"
b1111000111111110 #
#799
0"
#801
b1110011011001000 #
#803
b1101101111011000 #
b10111001100001000010001 ;
#806
b1101000011101000 #
#808
1"
b110101101110000 #
#809
0"
b110010111110100 #
#812
b110000010011100 #
#813
b110010111100100001111000 ;
#814
b101101101101000 #
#817
b101011000110100 #
#818
1"
b100111100000101000 #
#819
0"
#820
b100101010000010000 #
#822
b100010111111111000 #
#823
b1001010100000110010100110 ;
#825
b100000110011101000 #
#828
1"
b1001100100101010100 #
#829
0"
#830
b1000111011011110100 #
#833
b1000010100110111010 #
b1011011111100110111101010 ;
#836
b111101110010000000 #
#838
1"
b1101001001000010111 #
#839
0"
#841
b1100000110101101011 #
#843
b1100101110100111110100100 ;
#844
b1011000110101111100 #
#847
b1010001001001001010 #
#848
1"
b1111010001101110110 #
#849
0"
b1101111100000101110 #
#852
b1100100110011100110 #
#853
b1100111010101001000001010 ;
#855
b1011010111111100100 #
#857
b1010001001011100010 #
#858
1"
b1101011011001010110 #
#859
0"
#860
b1011111100110000010 #
#863
b1010100011000011111 #
b1100000010101011010010100 ;
#865
b1001001110000101101 #
#868
1"
b1001100100100100000 #
#869
0"
#871
b1000001111011111000 #
#873
b1010001011010101001100001 ;
#874
b110111010011010000 #
#876
b101110000101011000 #
#878
1"
b110011001101011011 #
#879
0"
b101001110000010111 #
#882
b100001000101101110 #
#883
b111011110011010111000101 ;
#884
b11001111111111011 #
#887
b10010111010001000 #
#888
1"
b10011010010111000 #
#889
0"
#890
b1101101010101101 #
#892
b1000110101111111 #
#893
b100001010001010011111000 ;
#895
b101101000001011 #
#898
1"
b10010100001110 #
#899
0"
#900
b110001011010 #
#903
b0 #
b100000000001001011110 ;
#908
1"
#909
0"
b1010111101010 #
#911
b11011011001001 #
#913
b1111111111100110011001111011001000 ;
#914
b110001010011101 #
#917
b1001100101100110 #
#918
1"
b111110010000110 #
#919
0"
b1011101011001001 #
#922
b1111100100001100 #
#923
b1111111111001010111010011010111011 ;
#925
b10100100100011001 #
#927
b11010001000001011 #
#928
1"
b10011001101010110 #
#929
0"
#930
b11000000111001110 #
#933
b11101000001000110 #
b1111111110110011110010010101110100 ;
#935
b100010101111010010 #
#938
1"
b11001101010001100 #
#939
0"
#941
b11101110000111100 #
#943
b1111111110100010111011011001111110 ;
#944
b100010011000100010 #
#946
b100111000000001000 #
#948
1"
b10100001110011000 #
#949
0"
b10110111000101100 #
#952
b11001101011100001 #
#953
b1111111110011001101110010110001000 ;
#954
b11100100110110111 #
#957
b11111101010101110 #
#958
1"
b1001101001010100 #
#959
0"
#960
b1010100111100100 #
#962
b1011101000011010 #
#963
b1111111110011000111011100110100011 ;
#965
b1100101011110110 #
#968
1"
b10011010100001 #
#969
0"
#970
b10100111001101 #
#973
b10110100010110 #
b1111111110100000100111010110000111 ;
#976
b11000010011001 #
#978
1"
b1010011110010100 #
#979
0"
b1011001110110000 #
#981
b1100000010010100 #
#983
b1111111110110000001001001000010110 ;
#984
b1100110101111000 #
#987
b1101101011000000 #
#988
1"
b111000101111010000 #
#989
0"
b111100010010001101 #
#992
b111111111011101001 #
#993
b1111111111000110001111001110010101 ;
#995
b1000011101011100100 #
#997
b1000111100001111110 #
#998
1"
b10010110101001010100 #
#999
0"
#1000
b10011110110000010000 #
#1003
b10100111010010100000 #
b1111111111100001000101010100111110 ;
#1006
b10101111110100110000 #
#1008
1"
b100110100101111110110 #
#1009
0"
#1011
b101000011011000011100 #
#1013
b1111111111111110011110001001000111 ;
#1014
b101010010010111111000 #
#1016
b101100001101110001010 #
#1018
1"
b111110110100001000011 #
#1019
0"
b1000001100110100111111 #
#1022
b1000100011001000111011 #
#1023
b11011111110111111010010 ;
#1024
b1000111001111101010100 #
#1027
b1001010000110001101101 #
#1028
1"
b1011110001011101010000 #
#1029
0"
#1030
b1100001111000110110000 #
#1032
b1100101100110000010000 #
#1033
b110111001100100001111000 ;
#1035
b1101001011000011000000 #
#1038
1"
b1111110010111101010000 #
#1039
0"
#1041
b10000010110110001010000 #
#1043
b10000111010100101010000 #
b1001101110111100010110000 ;
#1046
b10001011110011001010000 #
#1048
1"
b10010110001011110000001 #
#1049
0"
b10011011000101111100100 #
#1051
b10100000000000001000111 #
#1053
b1011110001000101101000010 ;
#1054
b10100101000000101111101 #
#1057
b10101001111010111100000 #
#1058
1"
b10101000111000101100000 #
#1059
0"
b10101101110111010101110 #
#1062
b10110010110101111111100 #
#1063
b1100110101010011001001011 ;
#1065
b10110111110100101001010 #
#1067
b10111100110011010011000 #
#1068
1"
b10101111011011111000000 #
#1069
0"
#1070
b10110100001001111001000 #
#1073
b10111000110001111111000 #
b1100110101111101111100000 ;
#1076
b10111101011010000101000 #
#1078
1"
b10100010101000000000000 #
#1079
0"
#1081
b10100110100110000110100 #
#1083
b1011110011000010100010101 ;
#1084
b10101010100100001101000 #
#1086
b10101110100111011000110 #
#1088
1"
b10001000111101111011111 #
#1089
0"
b10001100000101010000001 #
#1092
b10001111001100100100011 #
#1093
b1001110010000001010001110 ;
#1094
b10010010010011111000101 #
#1097
b10010101011011001100111 #
#1098
1"
b1100111100110000011001 #
#1099
0"
#1100
b1101001101101011110000 #
#1102
b1101011110111101001110 #
#1103
b110111101100001010000101 ;
#1105
b1101101111111000100101 #
#1108
1"
b1000001100001001001100 #
#1109
0"
#1111
b1000010101110101011100 #
#1113
b1000011111100001101100 #
b11100100011000100010011 ;
#1116
b1000101001001101111100 #
#1118
1"
b11111100001100010100 #
#1119
0"
b100000000100001001011 #
#1121
b100000100110110000010 #
#1123
b1111111111111111000011101111101010 ;
#1124
b100001001000101000000 #
#1127
b100001101010011111110 #
#1128
1"
b1000101010010101110 #
#1129
0"
b1000110010110111011 #
#1132
b1000111011011001000 #
#1133
b1111111111100001101001011001011110 ;
#1135
b1001000011101110100 #
#1138
1"
b11000010000000000 #
#1139
0"
#1140
b11000100101100000 #
#1143
b11000111010100000 #
b1111111111000110101110110100101001 ;
#1146
b11001001111000000 #
#1148
1"
b10101000100000000101 #
#1149
0"
#1151
b10101010100011111101 #
#1153
b1111111110110000100001101011000000 ;
#1154
b10101100100111110101 #
#1156
b10101110100101000111 #
#1158
1"
b111010100010011011110 #
#1159
0"
b111011001100011100010 #
#1162
b111011110101010110000 #
#1163
b1111111110100000110110110011110101 ;
#1164
b111100011101001001000 #
#1167
b111101000011110101010 #
#1168
1"
b1110111101111110001010 #
#1169
0"
#1170
b1111000111001011110110 #
#1173
b1111010000001000001100 #
b1111111110011001000000101100110110 ;
#1175
b1111011001000100100010 #
#1178
1"
b11000000001101001001100 #
#1179
0"
#1181
b11000001110101001010110 #
#1183
b11000011010110011110100 #
b1111111110011001101000101000010010 ;
#1186
b11000100110100011011100 #
#1188
1"
b100001010100101101000110 #
#1189
0"
b100001100100100111001010 #
#1191
b100001110011011000100000 #
#1193
b1111111110100010101011010011101001 ;
#1194
b100010000001100101011111 #
#1197
b100010001111001110000111 #
#1198
1"
b101001100101000110101010 #
#1199
0"
b101001110100111110010000 #
#1202
b101010000100001001101100 #
#1203
b1111111110110011011001001001000101 ;
#1205
b101010010010101000111110 #
#1208
1"
b101111101010101000000111 #
#1209
0"
#1210
b101111111000100011011001 #
#1213
b110000000110011110101011 #
b1111111111001010011010001001111101 ;
#1216
b110000010010110110111011 #
#1218
1"
b110010011111101100010010 #
#1219
0"
#1221
b110010101010111110011000 #
#1223
b1111111111100101110101001101110011 ;
#1224
b110010110100101001010100 #
#1226
b110010111110010100010000 #
#1228
1"
b110001011101011101110000 #
#1229
0"
b110001100101010010001110 #
#1232
b110001101100010100101001 #
#1233
b11011001111111110110 ;
#1234
b110001110001110010111110 #
#1237
b110001110111010001010011 #
#1238
1"
b101100101011011111010110 #
#1239
0"
#1240
b101100101110111111100100 #
#1243
b101100110001110010111100 #
b100000101100110110100100 ;
#1245
b101100110011111001011110 #
#1248
1"
b100101000110011010111001 #
#1249
0"
#1253
b100101000101110101110010 #
b111011010011100110110011 ;
#1256
b100101000100101011100100 #
#1258
1"
b11011101110010001000000 #
#1259
0"
b11011101100100010000000 #
#1261
b11011101010110011000000 #
#1263
b1010001000010001111000110 ;
#1264
b11011101000001100100000 #
#1267
b11011100101001010010000 #
#1268
1"
b10001111010111101001110 #
#1269
0"
#1270
b10001111000011010111100 #
#1272
b10001110101111000101010 #
#1273
b1100000000110011000100110 ;
#1275
b10001110010110010010100 #
#1278
1"
b1001100110111011011110 #
#1279
0"
#1280
b1001100100111100100001 #
#1283
b1001100010101010000010 #
b1100111010000110000111000 ;
#1286
b1001100000010111100011 #
#1288
1"
b11011011000011000100 #
#1289
0"
#1291
b11011010000011100000 #
#1293
b1100101111011101011001111 ;
#1294
b11011001000000011010 #
#1296
b11010111111001110010 #
#1298
1"
b100001011011111011 #
#1299
0"
b100001001111111001 #
#1302
b100001000011110111 #
#1303
b1011100001110000111001001 ;
#1305
b100000110110101111 #
#1307
b100000101001100111 #
#1308
1"
b1011111001001101110 #
#1309
0"
#1310
b1011110100000010010 #
#1313
b1011101110101010000 #
b1001010111011001011011111 ;
#1315
b1011101001000101000 #
#1318
1"
b100111100001100100011 #
#1319
0"
#1321
b100111001101000111101 #
#1323
b100110111000101010111 #
b110011011101111001101100 ;
#1326
b100110100010110110111 #
#1328
1"
b1010110111010110011001 #
#1329
0"
b1010110001000000100110 #
#1331
b1010101010011110100000 #
#1333
b10111110001101110101100 ;
#1334
b1010100011110000000111 #
#1337
b1010011101000001101110 #
#1338
1"
b10010000011010010000110 #
#1339
0"
#1340
b10001110111000000011011 #
#1342
b10001101010101110110000 #
#1343
b1111111111111010001000011001010100 ;
#1345
b10001011110000111110110 #
#1348
1"
b11001001101011101000000 #
#1349
0"
#1350
b11000111010000101000000 #
#1353
b11000100110101101000000 #
b1111111111011100111101111011010101 ;
#1356
b11000010010110110000000 #
#1358
1"
b11110110100010001000000 #
#1359
0"
#1361
b11110011001011111101110 #
#1363
b1111111111000010101011110100010010 ;
#1364
b11101111110101110011100 #
#1366
b11101100011010101010100 #
#1368
1"
b100010101011111001111110 #
#1369
0"
b100010001011110000010010 #
#1372
b100001101010110111110101 #
#1373
b1111111110101101011100011001101001 ;
#1375
b100001001001010000100111 #
#1377
b100000100111101001011001 #
#1378
1"
b100011011100010011010100 #
#1379
0"
#1380
b100010110111110001111100 #
#1383
b100010010010011101110000 #
b1111111110011110111111011110101100 ;
#1385
b100001101100010110110000 #
#1388
1"
b100001011001110010011000 #
#1389
0"
#1391
b100000110011010100111000 #
#1393
b100000001100000100000110 #
b1111111110011000100001000111111111 ;
#1396
b11111100100110011010100 #
#1398
1"
b11101101101111101111010 #
#1399
0"
b11101001001000000111001 #
#1402
b11100100100000011111000 #
#1403
b1111111110011010100011011010111110 ;
#1404
b11011111110010110100110 #
#1407
b11011011000101001010100 #
#1408
1"
b10111111011010111011100 #
#1409
0"
#1410
b10111011010011010110110 #
#1412
b10110111001011110010000 #
#1413
b1111111110100100111011101010011110 ;
#1415
b10110011000100001101010 #
#1418
1"
b10001001111011110111011 #
#1419
0"
#1420
b10000110101011111101001 #
#1423
b10000011010111111000110 #
b1111111110110110110011001110111011 ;
#1426
b10000000000111111110100 #
#1428
1"
b1011000101100101101001 #
#1429
0"
#1431
b1010110011000111100111 #
#1433
b1111111111001110101100000101110010 ;
#1434
b1010100000101001100101 #
#1437
b1010001110001011100011 #
#1438
1"
b110001011100111110001 #
#1439
0"
b110000000011100111011 #
#1442
b101110101010010000101 #
#1443
b1111111111101010101000100000011110 ;
#1445
b101101010010101100010 #
#1447
b101011111011000111111 #
#1448
1"
b10101000001101001110 #
#1449
0"
#1450
b10100010111101111000 #
#1453
b10011101101110100010 #
b1000010101011010000011 ;
#1455
b10011000100110000010 #
#1458
1"
b101101000111010010 #
#1459
0"
#1461
b101011100010110010 #
#1463
b101010000000011000 #
b100101010110011101011000 ;
#1466
b101000100000000100 #
#1468
1"
b1010010001101100 #
#1469
0"
b1001111001010000 #
#1472
b1001100000110100 #
#1473
b111111010010111011111100 ;
#1474
b1001001000111010 #
#1477
b1000110001100010 #
#1478
1"
b101010100101000101 #
#1479
0"
#1480
b101000110011101001 #
#1482
b100111000100110010 #
#1483
b1010100000010010001110001 ;
#1485
b100101010101111011 #
#1488
1"
b1101100011101101110 #
#1489
0"
#1490
b1100111011100001000 #
#1493
b1100010100010011000 #
b1100001110111010100001111 ;
#1496
b1011101101000101000 #
#1498
1"
b10110101010000000000 #
#1499
0"
#1501
b10101011110000000000 #
#1503
b1100111101001010000101111 ;
#1504
b10100010100000000000 #
#1507
b10011001010000000000 #
#1508
1"
b11110010001001011010 #
#1509
0"
b11100100010100100100 #
#1512
b11010110011111101110 #
#1513
b1100100111001101011110101 ;
#1515
b11001001000100001010 #
#1517
b10111100000001111000 #
#1518
1"
b100000011011000100000 #
#1519
0"
#1520
b11110001111100100000 #
#1523
b11100001100110010000 #
b1011001110111000001011011 ;
#1525
b11010001010000000000 #
#1528
1"
b11101111010010111011 #
#1529
0"
#1531
b11011100011010111111 #
#1533
b1000111011011011000110110 ;
#1534
b11001010001110001100 #
#1536
b10111000101100100010 #
#1538
1"
b11001101010011001010 #
#1539
0"
b10111011010100010010 #
#1542
b10101001010101011010 #
#1543
b101111000111110010111000 ;
#1544
b10011000110110011100 #
#1547
b10001000010111011110 #
#1548
1"
b10010010000011011010 #
#1549
0"
#1550
b10000010000000001110 #
#1552
b1110010110000011001 #
#1553
b10010111100001011001110 ;
#1555
b1100100010011111011 #
#1558
1"
b1010101100101101000 #
#1559
0"
#1560
b1001001101100110110 #
#1563
b111101110100000100 #
b1111111111110101001100110111001000 ;
#1566
b110011100000101110 #
#1568
1"
b101110101110000000 #
#1569
0"
b100110000110000000 #
#1571
b11110001100000000 #
#1573
b1111111111011000010110011000100110 ;
#1574
b10111101110000000 #
#1577
b10001010000000000 #
#1578
1"
b1110011111011000 #
#1579
0"
b1010010000111001 #
#1582
b110101001000011 #
#1583
b1111111110111110110000100110011110 ;
#1585
b100001110011111 #
#1587
b1110011111011 #
#1588
1"
b1011000001110 #
#1589
0"
#1590
b11101011010 #
#1593
b0 #
b1111111110101010100010001101001000 ;
#1598
1"
b100111000110 #
#1599
0"
#1601
b1100001101111 #
#1603
b1111111110011101010101101001100001 ;
#1604
b10101111111011 #
#1606
b100010001101010 #
#1608
1"
b10011010111000 #
#1609
0"
b11101000010100 #
#1612
b100110101110000 #
#1613
b1111111110011000010000011000111000 ;
#1614
b110011001010100 #
#1617
b1000000111111100 #
#1618
1"
b11001111110101 #
#1619
0"
#1620
b100000100111001 #
#1622
b100111001111101 #
#1623
b1111111110011011101101001011001000 ;
#1625
b101110111110111 #
#1628
1"
b1010101111100 #
#1629
0"
#1630
b1100011101100 #
#1633
b1110011001010 #
b1111111110100111011001110110000101 ;
#1636
b10000010101000 #
#1638
1"
b1111001001000 #
#1639
0"
b10001001000100 #
#1641
b10011001110011 #
#1643
b1111111110111010011000110101000110 ;
#1644
b10101011010101 #
#1647
b10111101101010 #
#1648
1"
b10001000101010100 #
#1649
0"
b10010110011100100 #
#1652
b10100100110011010 #
#1653
b1111111111010011000110001101000111 ;
#1655
b10110011101110110 #
#1657
b11000011110011110 #
#1658
1"
b111011011100010010 #
#1659
0"
#1660
b1000000010100101010 #
#1663
b1000101011000001100 #
b1111111111101111011111111010100111 ;
#1666
b1001010110010000010 #
#1668
1"
b10001100011111100100 #
#1669
0"
#1671
b10010110100100100111 #
#1673
b1101010000011110001011 ;
